{
  "$schema": "http://json-schema.org/draft/2019-09/schema",
  "$id": "http://example.com/example.json",
  "type": "object",
  "default": {},
  "title": "Root Schema",
  "required": [
    "meta",
    "vendors"
  ],
  "properties": {
    "meta": {
      "type": "object",
      "default": {},
      "title": "The meta Schema",
      "required": [
        "count",
        "limit",
        "page",
        "next_url"
      ],
      "properties": {
        "count": {
          "type": "integer",
          "default": 0,
          "title": "The count Schema",
          "examples": [
            13
          ]
        },
        "limit": {
          "type": "integer",
          "default": 0,
          "title": "The limit Schema",
          "examples": [
            10
          ]
        },
        "page": {
          "type": "integer",
          "default": 0,
          "title": "The page Schema",
          "examples": [
            1
          ]
        },
        "next_url": {
          "type": "string",
          "default": "",
          "title": "The next_url Schema",
          "examples": [
            "/shop/vendors/?page=2\u0026limit=10"
          ]
        }
      },
      "examples": [{
        "count": 13,
        "limit": 10,
        "page": 1,
        "next_url": "/shop/vendors/?page=2\u0026limit=10"
      }]
    },
    "vendors": {
      "type": "array",
      "default": [],
      "title": "The vendors Schema",
      "items": {
        "type": "object",
        "title": "A Schema",
        "required": [
          "name",
          "vendor_url"
        ],
        "properties": {
          "name": {
            "type": "string",
            "title": "The name Schema",
            "examples": [
              "Western Tasty Fruits Ltd.",
              "Exotic Fruits Company",
              "Home Fruits",
              "Fun Fresh Fruits Ltd.",
              "Nuts for Nuts Company",
              "Murray, Durgan and Reynolds",
              "Reichel-Hermann",
              "Stracke-Sawayn",
              "Swaniawski, Schuppe and Reilly",
              "VonRueden and Sons"
            ]
          },
          "vendor_url": {
            "type": "string",
            "title": "The vendor_url Schema",
            "examples": [
              "/shop/vendors/672",
              "/shop/vendors/32",
              "/shop/vendors/501",
              "/shop/vendors/810",
              "/shop/vendors/67",
              "/shop/vendors/811",
              "/shop/vendors/812",
              "/shop/vendors/813",
              "/shop/vendors/814",
              "/shop/vendors/815"
            ]
          }
        },
        "examples": [{
          "name": "Western Tasty Fruits Ltd.",
          "vendor_url": "/shop/vendors/672"
        },
          {
            "name": "Exotic Fruits Company",
            "vendor_url": "/shop/vendors/32"
          },
          {
            "name": "Home Fruits",
            "vendor_url": "/shop/vendors/501"
          },
          {
            "name": "Fun Fresh Fruits Ltd.",
            "vendor_url": "/shop/vendors/810"
          },
          {
            "name": "Nuts for Nuts Company",
            "vendor_url": "/shop/vendors/67"
          },
          {
            "name": "Murray, Durgan and Reynolds",
            "vendor_url": "/shop/vendors/811"
          },
          {
            "name": "Reichel-Hermann",
            "vendor_url": "/shop/vendors/812"
          },
          {
            "name": "Stracke-Sawayn",
            "vendor_url": "/shop/vendors/813"
          },
          {
            "name": "Swaniawski, Schuppe and Reilly",
            "vendor_url": "/shop/vendors/814"
          },
          {
            "name": "VonRueden and Sons",
            "vendor_url": "/shop/vendors/815"
          }]
      },
      "examples": [
        [{
          "name": "Western Tasty Fruits Ltd.",
          "vendor_url": "/shop/vendors/672"
        },
          {
            "name": "Exotic Fruits Company",
            "vendor_url": "/shop/vendors/32"
          },
          {
            "name": "Home Fruits",
            "vendor_url": "/shop/vendors/501"
          },
          {
            "name": "Fun Fresh Fruits Ltd.",
            "vendor_url": "/shop/vendors/810"
          },
          {
            "name": "Nuts for Nuts Company",
            "vendor_url": "/shop/vendors/67"
          },
          {
            "name": "Murray, Durgan and Reynolds",
            "vendor_url": "/shop/vendors/811"
          },
          {
            "name": "Reichel-Hermann",
            "vendor_url": "/shop/vendors/812"
          },
          {
            "name": "Stracke-Sawayn",
            "vendor_url": "/shop/vendors/813"
          },
          {
            "name": "Swaniawski, Schuppe and Reilly",
            "vendor_url": "/shop/vendors/814"
          },
          {
            "name": "VonRueden and Sons",
            "vendor_url": "/shop/vendors/815"
          }]
      ]
    }
  },
  "examples": [{
    "meta": {
      "count": 13,
      "limit": 10,
      "page": 1,
      "next_url": "/shop/vendors/?page=2\u0026limit=10"
    },
    "vendors": [{
      "name": "Western Tasty Fruits Ltd.",
      "vendor_url": "/shop/vendors/672"
    },
      {
        "name": "Exotic Fruits Company",
        "vendor_url": "/shop/vendors/32"
      },
      {
        "name": "Home Fruits",
        "vendor_url": "/shop/vendors/501"
      },
      {
        "name": "Fun Fresh Fruits Ltd.",
        "vendor_url": "/shop/vendors/810"
      },
      {
        "name": "Nuts for Nuts Company",
        "vendor_url": "/shop/vendors/67"
      },
      {
        "name": "Murray, Durgan and Reynolds",
        "vendor_url": "/shop/vendors/811"
      },
      {
        "name": "Reichel-Hermann",
        "vendor_url": "/shop/vendors/812"
      },
      {
        "name": "Stracke-Sawayn",
        "vendor_url": "/shop/vendors/813"
      },
      {
        "name": "Swaniawski, Schuppe and Reilly",
        "vendor_url": "/shop/vendors/814"
      },
      {
        "name": "VonRueden and Sons",
        "vendor_url": "/shop/vendors/815"
      }]
  }]
}