{
  "$schema": "http://json-schema.org/draft/2019-09/schema",
  "$id": "http://example.com/example.json",
  "type": "object",
  "default": {},
  "title": "Root Schema",
  "required": [
    "meta",
    "products"
  ],
  "properties": {
    "meta": {
      "type": "object",
      "default": {},
      "title": "The meta Schema",
      "required": [
        "count",
        "limit",
        "page",
        "next_url"
      ],
      "properties": {
        "count": {
          "type": "integer",
          "default": 0,
          "title": "The count Schema",
          "examples": [
            38
          ]
        },
        "limit": {
          "type": "integer",
          "default": 0,
          "title": "The limit Schema",
          "examples": [
            10
          ]
        },
        "page": {
          "type": "integer",
          "default": 0,
          "title": "The page Schema",
          "examples": [
            1
          ]
        },
        "next_url": {
          "type": "string",
          "default": "",
          "title": "The next_url Schema",
          "examples": [
            "/shop/products/?page=2\u0026limit=10"
          ]
        }
      },
      "examples": [{
        "count": 38,
        "limit": 10,
        "page": 1,
        "next_url": "/shop/products/?page=2\u0026limit=10"
      }]
    },
    "products": {
      "type": "array",
      "default": [],
      "title": "The products Schema",
      "items": {
        "type": "object",
        "title": "A Schema",
        "required": [
          "name",
          "product_url"
        ],
        "properties": {
          "name": {
            "type": "string",
            "title": "The name Schema",
            "examples": [
              "updateddd",
              "update for PATCH request",
              "Pineapples",
              "Dried Pineapples",
              "Cranberries",
              "Mango fresh",
              "Raspberries",
              "Cherries",
              "Green Grapes",
              "Apples"
            ]
          },
          "product_url": {
            "type": "string",
            "title": "The product_url Schema",
            "examples": [
              "/shop/products/3",
              "/shop/products/10",
              "/shop/products/33",
              "/shop/products/42",
              "/shop/products/57",
              "/shop/products/62",
              "/shop/products/90",
              "/shop/products/7",
              "/shop/products/11",
              "/shop/products/50"
            ]
          }
        },
        "examples": [{
          "name": "updateddd",
          "product_url": "/shop/products/3"
        },
          {
            "name": "update for PATCH request",
            "product_url": "/shop/products/10"
          },
          {
            "name": "Pineapples",
            "product_url": "/shop/products/33"
          },
          {
            "name": "Dried Pineapples",
            "product_url": "/shop/products/42"
          },
          {
            "name": "Cranberries",
            "product_url": "/shop/products/57"
          },
          {
            "name": "Mango fresh",
            "product_url": "/shop/products/62"
          },
          {
            "name": "Raspberries",
            "product_url": "/shop/products/90"
          },
          {
            "name": "Cherries",
            "product_url": "/shop/products/7"
          },
          {
            "name": "Green Grapes",
            "product_url": "/shop/products/11"
          },
          {
            "name": "Apples",
            "product_url": "/shop/products/50"
          }]
      },
      "examples": [
        [{
          "name": "updateddd",
          "product_url": "/shop/products/3"
        },
          {
            "name": "update for PATCH request",
            "product_url": "/shop/products/10"
          },
          {
            "name": "Pineapples",
            "product_url": "/shop/products/33"
          },
          {
            "name": "Dried Pineapples",
            "product_url": "/shop/products/42"
          },
          {
            "name": "Cranberries",
            "product_url": "/shop/products/57"
          },
          {
            "name": "Mango fresh",
            "product_url": "/shop/products/62"
          },
          {
            "name": "Raspberries",
            "product_url": "/shop/products/90"
          },
          {
            "name": "Cherries",
            "product_url": "/shop/products/7"
          },
          {
            "name": "Green Grapes",
            "product_url": "/shop/products/11"
          },
          {
            "name": "Apples",
            "product_url": "/shop/products/50"
          }]
      ]
    }
  },
  "examples": [{
    "meta": {
      "count": 38,
      "limit": 10,
      "page": 1,
      "next_url": "/shop/products/?page=2\u0026limit=10"
    },
    "products": [{
      "name": "updateddd",
      "product_url": "/shop/products/3"
    },
      {
        "name": "update for PATCH request",
        "product_url": "/shop/products/10"
      },
      {
        "name": "Pineapples",
        "product_url": "/shop/products/33"
      },
      {
        "name": "Dried Pineapples",
        "product_url": "/shop/products/42"
      },
      {
        "name": "Cranberries",
        "product_url": "/shop/products/57"
      },
      {
        "name": "Mango fresh",
        "product_url": "/shop/products/62"
      },
      {
        "name": "Raspberries",
        "product_url": "/shop/products/90"
      },
      {
        "name": "Cherries",
        "product_url": "/shop/products/7"
      },
      {
        "name": "Green Grapes",
        "product_url": "/shop/products/11"
      },
      {
        "name": "Apples",
        "product_url": "/shop/products/50"
      }]
  }]
}